module github.com/penguin-statistics/backend-next

go 1.18

require (
	github.com/ahmetb/go-linq/v3 v3.2.0
	github.com/bwmarrin/snowflake v0.3.0
	github.com/davecgh/go-spew v1.1.1
	github.com/dchest/uniuri v0.0.0-20200228104902-7aecb25e1fe5
	github.com/getsentry/sentry-go v0.12.0
	github.com/go-playground/locales v0.14.0
	github.com/go-playground/universal-translator v0.18.0
	github.com/go-playground/validator/v10 v10.10.1
	github.com/go-redis/redis/v8 v8.11.4
	github.com/goccy/go-json v0.9.5
	github.com/gofiber/contrib/fibersentry v0.0.0-20220308072908-2bb8d753d425
	github.com/gofiber/fiber/v2 v2.29.0
	github.com/gofiber/helmet/v2 v2.2.8
	github.com/kelseyhightower/envconfig v1.4.0
	github.com/nats-io/nats.go v1.13.1-0.20220121202836-972a071d373d
	github.com/oschwald/geoip2-golang v1.6.1
	github.com/penguin-statistics/fiber-swagger/v3 v3.0.2
	github.com/penguin-statistics/fiberotel v0.8.2
	github.com/pkg/errors v0.9.1
	github.com/rs/zerolog v1.26.1
	github.com/stretchr/testify v1.7.0
	github.com/swaggo/swag v1.8.0
	github.com/tidwall/gjson v1.12.0
	github.com/uptrace/bun v1.0.25
	github.com/uptrace/bun/dialect/pgdialect v1.0.25
	github.com/uptrace/bun/driver/pgdriver v1.0.25
	github.com/uptrace/bun/extra/bundebug v1.0.25
	github.com/uptrace/bun/extra/bunotel v1.0.25
	github.com/vmihailenco/msgpack/v5 v5.3.5
	github.com/zeebo/xxh3 v1.0.2
	go.opentelemetry.io/otel v1.4.1
	go.opentelemetry.io/otel/exporters/jaeger v1.4.1
	go.opentelemetry.io/otel/sdk v1.4.1
	go.uber.org/fx v1.17.0
	golang.org/x/text v0.3.7
	google.golang.org/protobuf v1.27.1
	gopkg.in/guregu/null.v3 v3.5.0
)

require (
	github.com/fasthttp/websocket v1.5.0 // indirect
	github.com/gofiber/websocket/v2 v2.0.18 // indirect
	github.com/savsgio/gotils v0.0.0-20220201163454-d252f0a44d5b // indirect
)

require (
	github.com/KyleBanks/depth v1.2.1 // indirect
	github.com/PuerkitoBio/purell v1.1.1 // indirect
	github.com/PuerkitoBio/urlesc v0.0.0-20170810143723-de5bf2ad4578 // indirect
	github.com/andybalholm/brotli v1.0.4 // indirect
	github.com/cespare/xxhash/v2 v2.1.2 // indirect
	github.com/dgryski/go-rendezvous v0.0.0-20200823014737-9f7001d12a5f // indirect
	github.com/fatih/color v1.13.0 // indirect
	github.com/go-logr/logr v1.2.2 // indirect
	github.com/go-logr/stdr v1.2.2 // indirect
	github.com/go-openapi/jsonpointer v0.19.5 // indirect
	github.com/go-openapi/jsonreference v0.19.6 // indirect
	github.com/go-openapi/spec v0.20.4 // indirect
	github.com/go-openapi/swag v0.21.1 // indirect
	github.com/jinzhu/inflection v1.0.0 // indirect
	github.com/josharian/intern v1.0.0 // indirect
	github.com/klauspost/compress v1.15.1 // indirect
	github.com/klauspost/cpuid/v2 v2.0.11 // indirect
	github.com/leodido/go-urn v1.2.1 // indirect
	github.com/mailru/easyjson v0.7.7 // indirect
	github.com/mattn/go-colorable v0.1.12 // indirect
	github.com/mattn/go-isatty v0.0.14 // indirect
	github.com/nats-io/nats-server/v2 v2.7.3 // indirect
	github.com/nats-io/nkeys v0.3.0 // indirect
	github.com/nats-io/nuid v1.0.1 // indirect
	github.com/oschwald/maxminddb-golang v1.8.0 // indirect
	github.com/patrickmn/go-cache v2.1.0+incompatible
	github.com/penguin-statistics/swaggo-files v1.0.0 // indirect
	github.com/pmezard/go-difflib v1.0.0 // indirect
	github.com/stretchr/objx v0.3.0 // indirect
	github.com/tidwall/match v1.1.1 // indirect
	github.com/tidwall/pretty v1.2.0 // indirect
	github.com/tmthrgd/go-hex v0.0.0-20190904060850-447a3041c3bc // indirect
	github.com/uptrace/opentelemetry-go-extra/otelsql v0.1.8 // indirect
	github.com/valyala/bytebufferpool v1.0.0 // indirect
	github.com/valyala/fasthttp v1.34.0
	github.com/valyala/tcplisten v1.0.0 // indirect
	github.com/vmihailenco/tagparser/v2 v2.0.0 // indirect
	go.opentelemetry.io/otel/internal/metric v0.27.0 // indirect
	go.opentelemetry.io/otel/metric v0.27.0 // indirect
	go.opentelemetry.io/otel/trace v1.4.1 // indirect
	go.uber.org/atomic v1.7.0 // indirect
	go.uber.org/dig v1.14.0 // indirect
	go.uber.org/multierr v1.6.0 // indirect
	go.uber.org/zap v1.16.0 // indirect
	golang.org/x/crypto v0.0.0-20220214200702-86341886e292 // indirect
	golang.org/x/mod v0.5.1-0.20210830214625-1b1db11ec8f4 // indirect
	golang.org/x/net v0.0.0-20220225172249-27dd8689420f // indirect
	golang.org/x/sys v0.0.0-20220310020820-b874c991c1a5 // indirect
	golang.org/x/tools v0.1.7 // indirect
	gopkg.in/yaml.v2 v2.4.0 // indirect
	gopkg.in/yaml.v3 v3.0.0-20210107192922-496545a6307b // indirect
	honnef.co/go/tools v0.1.3 // indirect
	mellium.im/sasl v0.2.1 // indirect
)
